#####################################################################################
#                                 G4SEE OUTPUT FILE                                 #
#####################################################################################

Simulation started:           2022/12/06 02:14:39

Geant4 release:               geant4-11-00-patch-03 [MT]   (16-September-2022)

G4SEE version:                v0.5-9-g6c515ed
G4SEE tag:                    v0.5
G4SEE commit ID:              6c515ed
G4SEE branch:                 HEAD

Multi-Threaded mode
Number of threads used:       4

Number of primary particles:  10000

Total CPU time (s):           9.26318
CPU time / primary (s):       0.000926318

Output directory:             /home/tutorial_1/output_3​
Input macro file:             /home/tutorial_1/tutorial_1-3.mac

+++++++++++++++++++++++++++++++++++++++++++++++++++++++++++++++++++++++++++++++++++++
+                               Input Macro Commands                                +
+++++++++++++++++++++++++++++++++++++++++++++++++++++++++++++++++++++++++++++++++++++

#
# G4SEE Single Event Effect simulation toolkit
# ============================================
# SPDX-FileCopyrightText: © 2022 CERN for the benefit of the G4SEE Collaboration <https://cern.ch/g4see>
# SPDX-License-Identifier: CC-BY-4.0
#
########################################################
###     G4SEE Tutorial 1.3 - Primaries, Scoring      ###
########################################################

#################
### General G4 commands

/run/printProgress                  10
/run/numberOfThreads                4
/control/cout/ignoreThreadsExcept   0

/random/setSeeds                    1234, 4321  

/tracking/verbose                   0

#################
### Geometry

# BULK COMMAND                      MATERIAL            WIDTH unit  	THICK unit  	BIAS
/SEE/geometry/Bulk                  G4_Si               6 um            1 um            false
# SV COMMAND                        POSITION unit       WIDTH unit  	THICK unit  	BIAS
/SEE/geometry/SV                    0 0 0 nm            310 310 nm      310 nm          false
# BEOL COMMAND                      MATERIAL            WIDTH unit      THICK unit      NAME        BIAS
/SEE/geometry/BEOL/addLayer         G4_SILICON_DIOXIDE  6 um            6 um            Oxide       false

#################
### Initialize
/run/initialize

#################
### Primaries

/gps/particle                       proton
/gps/ene/mono                       1 MeV
/gps/ene/sigma                      25 keV
/gps/direction                      0 0 -1
/gps/pos/type                       Plane
/gps/pos/shape                      Rectangle
/gps/pos/centre                     0 0 10 um
/gps/pos/halfx                      0.5 um
/gps/pos/halfy                      0.5 um

#################
### Scoring (standard)

/SEE/scoring/standard/Ekin          0       proton
/SEE/scoring/setHistogram           lin     200     0       2   MeV

#################
### Run
/run/beamOn                         10000
