           Edep         Counts   StdDev(corr)
      underflow      3.000e+05      1.799e+03
       overflow              0              0
      1.000e-03              0              0
      1.051e-03              0              0
      1.104e-03              0              0
      1.160e-03              0              0
      1.219e-03              0              0
      1.281e-03              0              0
      1.346e-03              0              0
      1.414e-03              0              0
      1.486e-03              0              0
      1.562e-03              0              0
      1.641e-03              0              0
      1.724e-03              0              0
      1.812e-03              0              0
      1.904e-03              0              0
      2.000e-03              0              0
      2.102e-03              0              0
      2.208e-03              0              0
      2.321e-03              0              0
      2.438e-03              0              0
      2.562e-03              0              0
      2.692e-03              0              0
      2.829e-03              0              0
      2.972e-03              0              0
      3.123e-03              0              0
      3.282e-03              0              0
      3.448e-03              0              0
      3.624e-03              0              0
      3.807e-03              0              0
      4.001e-03              0              0
      4.204e-03              0              0
      4.417e-03              0              0
      4.642e-03              0              0
      4.877e-03              0              0
      5.125e-03              0              0
      5.385e-03              0              0
      5.658e-03              0              0
      5.945e-03              0              0
      6.247e-03              0              0
      6.564e-03              0              0
      6.898e-03              0              0
      7.248e-03              0              0
      7.616e-03              0              0
      8.002e-03              0              0
      8.409e-03              0              0
      8.835e-03              0              0
      9.284e-03              0              0
      9.755e-03              0              0
      1.025e-02              0              0
      1.077e-02              0              0
      1.132e-02              0              0
      1.189e-02              0              0
      1.250e-02              0              0
      1.313e-02              0              0
      1.380e-02              0              0
      1.450e-02              0              0
      1.523e-02              0              0
      1.601e-02              0              0
      1.682e-02              0              0
      1.767e-02              0              0
      1.857e-02              0              0
      1.951e-02              0              0
      2.050e-02              0              0
      2.154e-02              0              0
      2.264e-02              0              0
      2.379e-02              0              0
      2.499e-02              0              0
      2.626e-02              0              0
      2.760e-02              0              0
      2.900e-02              0              0
      3.047e-02              0              0
      3.202e-02              0              0
      3.364e-02              0              0
      3.535e-02              0              0
      3.714e-02              0              0
      3.903e-02              0              0
      4.101e-02              0              0
      4.309e-02              0              0
      4.528e-02              0              0
      4.758e-02              0              0
      4.999e-02              0              0
      5.253e-02              0              0
      5.520e-02              0              0
      5.800e-02              0              0
      6.094e-02              0              0
      6.404e-02              0              0
      6.729e-02      1.000e+00      5.000e-01
      7.070e-02              0              0
      7.429e-02              0              0
      7.806e-02              0              0
      8.203e-02              0              0
      8.619e-02              0              0
      9.057e-02              0              0
      9.516e-02              0              0
      1.000e-01              0              0
      1.051e-01              0              0
      1.104e-01              0              0
      1.160e-01              0              0
      1.219e-01              0              0
      1.281e-01              0              0
      1.346e-01              0              0
      1.414e-01              0              0
      1.486e-01              0              0
      1.561e-01              0              0
      1.641e-01              0              0
      1.724e-01              0              0
      1.812e-01              0              0
      1.903e-01              0              0
      2.000e-01              0              0
      2.102e-01              0              0
      2.208e-01              0              0
      2.320e-01              0              0
      2.438e-01              0              0
      2.562e-01              0              0
      2.692e-01              0              0
      2.829e-01              0              0
      2.972e-01              0              0
      3.123e-01              0              0
      3.282e-01              0              0
      3.448e-01              0              0
      3.623e-01              0              0
      3.807e-01              0              0
      4.001e-01              0              0
      4.204e-01              0              0
      4.417e-01              0              0
      4.641e-01              0              0
      4.877e-01              0              0
      5.124e-01              0              0
      5.385e-01              0              0
      5.658e-01              0              0
      5.945e-01              0              0
      6.247e-01              0              0
      6.564e-01              0              0
      6.897e-01              0              0
      7.247e-01              0              0
      7.615e-01              0              0
      8.002e-01              0              0
      8.408e-01              0              0
      8.835e-01              0              0
      9.283e-01              0              0
      9.755e-01              0              0
      1.025e+00              0              0
      1.077e+00              0              0
      1.132e+00              0              0
      1.189e+00              0              0
      1.250e+00              0              0
      1.313e+00              0              0
      1.380e+00              0              0
      1.450e+00              0              0
      1.523e+00              0              0
      1.601e+00              0              0
      1.682e+00              0              0
      1.767e+00              0              0
      1.857e+00              0              0
      1.951e+00              0              0
      2.050e+00              0              0
      2.154e+00              0              0
      2.264e+00              0              0
      2.379e+00              0              0
      2.499e+00              0              0
      2.626e+00              0              0
      2.759e+00              0              0
      2.900e+00              0              0
      3.047e+00              0              0
      3.201e+00              0              0
      3.364e+00              0              0
      3.535e+00              0              0
      3.714e+00              0              0
      3.903e+00              0              0
      4.101e+00              0              0
      4.309e+00              0              0
      4.528e+00              0              0
      4.758e+00              0              0
      4.999e+00              0              0
      5.253e+00              0              0
      5.519e+00              0              0
      5.800e+00              0              0
      6.094e+00              0              0
      6.403e+00              0              0
      6.728e+00              0              0
      7.070e+00              0              0
      7.429e+00              0              0
      7.806e+00              0              0
      8.202e+00              0              0
      8.619e+00              0              0
      9.056e+00              0              0
      9.516e+00              0              0
      9.999e+00              0              0
      1.051e+01              0              0
      1.104e+01              0              0
      1.160e+01              0              0
      1.219e+01              0              0
      1.281e+01              0              0
      1.346e+01              0              0
      1.414e+01              0              0
      1.486e+01              0              0
      1.561e+01              0              0
      1.641e+01              0              0
      1.724e+01              0              0
      1.811e+01              0              0
      1.903e+01              0              0
      2.000e+01
