           Edep         Counts   StdDev(corr)
      underflow      1.784e+05      1.200e+02
       overflow              0              0
      1.000e-04      1.000e+00      5.000e-01
      1.031e-04      5.000e+00      1.258e+00
      1.063e-04      6.000e+00      5.774e-01
      1.096e-04              0              0
      1.131e-04      2.000e+00      5.774e-01
      1.166e-04      4.000e+00      0.000e+00
      1.202e-04      6.000e+00      1.291e+00
      1.240e-04      6.000e+00      1.291e+00
      1.278e-04      6.000e+00      1.291e+00
      1.318e-04      1.000e+01      1.291e+00
      1.359e-04      5.000e+00      1.500e+00
      1.402e-04      6.000e+00      5.774e-01
      1.445e-04      5.000e+00      1.258e+00
      1.491e-04      5.000e+00      1.258e+00
      1.537e-04      4.000e+00      1.414e+00
      1.585e-04      7.000e+00      1.708e+00
      1.634e-04      6.000e+00      1.732e+00
      1.685e-04      7.000e+00      5.000e-01
      1.738e-04      9.000e+00      9.574e-01
      1.792e-04      7.000e+00      9.574e-01
      1.848e-04      1.200e+01      2.449e+00
      1.905e-04      7.000e+00      9.574e-01
      1.965e-04      7.000e+00      9.574e-01
      2.026e-04      6.000e+00      5.774e-01
      2.089e-04      1.100e+01      1.500e+00
      2.154e-04      7.000e+00      2.217e+00
      2.222e-04      8.000e+00      8.165e-01
      2.291e-04      9.000e+00      5.000e-01
      2.362e-04      6.000e+00      1.000e+00
      2.436e-04      9.000e+00      9.574e-01
      2.512e-04      1.300e+01      9.574e-01
      2.590e-04      1.000e+01      5.774e-01
      2.671e-04      1.100e+01      2.363e+00
      2.754e-04      1.100e+01      1.258e+00
      2.840e-04      1.000e+01      1.732e+00
      2.929e-04      6.000e+00      5.774e-01
      3.020e-04      1.200e+01      1.414e+00
      3.114e-04      7.000e+00      9.574e-01
      3.211e-04      1.300e+01      5.000e-01
      3.311e-04      1.200e+01      1.414e+00
      3.415e-04      1.800e+01      1.915e+00
      3.521e-04      1.600e+01      1.826e+00
      3.631e-04      1.300e+01      1.708e+00
      3.744e-04      1.500e+01      9.574e-01
      3.861e-04      1.600e+01      8.165e-01
      3.981e-04      1.500e+01      2.986e+00
      4.105e-04      1.900e+01      2.217e+00
      4.233e-04      1.700e+01      1.893e+00
      4.365e-04      1.800e+01      1.732e+00
      4.501e-04      1.200e+01      2.449e+00
      4.642e-04      1.000e+01      1.000e+00
      4.786e-04      2.100e+01      1.258e+00
      4.936e-04      3.000e+01      1.291e+00
      5.089e-04      2.100e+01      1.708e+00
      5.248e-04      2.300e+01      1.500e+00
      5.412e-04      2.000e+01      8.165e-01
      5.580e-04      2.900e+01      1.708e+00
      5.754e-04      2.100e+01      1.708e+00
      5.934e-04      2.500e+01      2.500e+00
      6.119e-04      2.100e+01      3.304e+00
      6.310e-04      2.700e+01      2.217e+00
      6.506e-04      3.500e+01      2.872e+00
      6.709e-04      4.300e+01      3.403e+00
      6.918e-04      2.500e+01      2.986e+00
      7.134e-04      4.000e+01      2.160e+00
      7.356e-04      3.900e+01      2.754e+00
      7.586e-04      3.200e+01      2.309e+00
      7.822e-04      4.400e+01      3.266e+00
      8.066e-04      3.500e+01      3.403e+00
      8.318e-04      4.800e+01      2.309e+00
      8.577e-04      4.600e+01      2.082e+00
      8.844e-04      4.200e+01      4.123e+00
      9.120e-04      3.000e+01      2.517e+00
      9.404e-04      5.000e+01      3.512e+00
      9.698e-04      4.500e+01      2.062e+00
      1.000e-03      4.800e+01      4.082e+00
      1.031e-03      4.400e+01      3.559e+00
      1.063e-03      3.800e+01      1.732e+00
      1.096e-03      3.200e+01      3.162e+00
      1.131e-03      3.200e+01      3.367e+00
      1.166e-03      2.700e+01      2.363e+00
      1.202e-03      2.800e+01      2.160e+00
      1.240e-03      3.100e+01      3.096e+00
      1.278e-03      2.500e+01      2.217e+00
      1.318e-03      2.100e+01      2.217e+00
      1.359e-03      2.900e+01      3.304e+00
      1.402e-03      1.700e+01      2.363e+00
      1.445e-03      1.300e+01      2.500e+00
      1.491e-03      2.000e+01      2.582e+00
      1.537e-03      2.000e+01      2.944e+00
      1.585e-03      1.100e+01      2.986e+00
      1.634e-03      1.500e+01      5.000e-01
      1.685e-03      2.300e+01      2.986e+00
      1.738e-03      1.600e+01      1.414e+00
      1.792e-03      2.100e+01      1.500e+00
      1.848e-03      2.100e+01      9.574e-01
      1.905e-03      1.600e+01      2.582e+00
      1.965e-03      1.800e+01      3.000e+00
      2.026e-03      1.800e+01      5.774e-01
      2.089e-03      1.700e+01      3.862e+00
      2.154e-03      1.400e+01      2.082e+00
      2.222e-03      1.700e+01      2.217e+00
      2.291e-03      2.100e+01      1.708e+00
      2.362e-03      1.500e+01      2.217e+00
      2.436e-03      1.800e+01      1.915e+00
      2.512e-03      1.800e+01      3.416e+00
      2.590e-03      1.900e+01      2.217e+00
      2.671e-03      1.600e+01      2.160e+00
      2.754e-03      2.200e+01      3.697e+00
      2.840e-03      1.900e+01      2.872e+00
      2.929e-03      1.500e+01      1.500e+00
      3.020e-03      2.000e+01      2.944e+00
      3.114e-03      1.300e+01      9.574e-01
      3.211e-03      2.100e+01      2.500e+00
      3.311e-03      1.700e+01      5.000e-01
      3.415e-03      2.700e+01      2.872e+00
      3.521e-03      1.700e+01      1.500e+00
      3.631e-03      1.600e+01      4.830e+00
      3.744e-03      1.900e+01      9.574e-01
      3.861e-03      2.600e+01      2.517e+00
      3.981e-03      2.900e+01      2.062e+00
      4.105e-03      2.800e+01      8.165e-01
      4.233e-03      2.700e+01      7.274e+00
      4.365e-03      2.400e+01      1.414e+00
      4.501e-03      2.500e+01      2.500e+00
      4.642e-03      2.600e+01      2.646e+00
      4.786e-03      1.900e+01      2.217e+00
      4.936e-03      2.000e+01      1.633e+00
      5.089e-03      1.700e+01      1.500e+00
      5.248e-03      3.600e+01      6.272e+00
      5.412e-03      3.400e+01      2.380e+00
      5.580e-03      3.200e+01      5.099e+00
      5.754e-03      2.800e+01      3.742e+00
      5.934e-03      4.000e+01      2.944e+00
      6.119e-03      4.700e+01      2.062e+00
      6.310e-03      4.200e+01      4.041e+00
      6.506e-03      4.400e+01      3.162e+00
      6.709e-03      4.800e+01      3.559e+00
      6.918e-03      5.200e+01      3.651e+00
      7.134e-03      4.400e+01      2.582e+00
      7.356e-03      4.500e+01      2.062e+00
      7.586e-03      3.800e+01      1.915e+00
      7.822e-03      6.000e+01      3.916e+00
      8.066e-03      7.700e+01      6.238e+00
      8.318e-03      8.000e+01      1.414e+00
      8.577e-03      8.800e+01      5.657e+00
      8.844e-03      1.190e+02      3.775e+00
      9.120e-03      1.210e+02      7.228e+00
      9.404e-03      1.530e+02      5.000e-01
      9.698e-03      1.740e+02      6.245e+00
      1.000e-02      1.990e+02      4.193e+00
      1.031e-02      2.260e+02      1.085e+01
      1.063e-02      2.580e+02      9.469e+00
      1.096e-02      3.200e+02      7.394e+00
      1.131e-02      3.580e+02      9.883e+00
      1.166e-02      4.860e+02      5.196e+00
      1.202e-02      4.990e+02      6.021e+00
      1.240e-02      5.920e+02      1.334e+01
      1.278e-02      7.270e+02      2.097e+01
      1.318e-02      7.940e+02      1.902e+01
      1.359e-02      8.400e+02      4.690e+00
      1.402e-02      9.170e+02      2.231e+01
      1.445e-02      1.082e+03      1.721e+01
      1.491e-02      1.074e+03      9.292e+00
      1.537e-02      1.064e+03      1.643e+01
      1.585e-02      1.124e+03      1.675e+01
      1.634e-02      1.118e+03      1.066e+01
      1.685e-02      1.057e+03      2.494e+01
      1.738e-02      9.140e+02      2.169e+01
      1.792e-02      9.040e+02      2.186e+01
      1.848e-02      7.740e+02      9.815e+00
      1.905e-02      6.730e+02      1.066e+01
      1.965e-02      4.850e+02      4.787e+00
      2.026e-02      4.130e+02      6.292e+00
      2.089e-02      2.980e+02      3.109e+00
      2.154e-02      2.060e+02      6.608e+00
      2.222e-02      1.620e+02      1.182e+01
      2.291e-02      1.040e+02      5.164e+00
      2.362e-02      5.700e+01      3.096e+00
      2.436e-02      3.700e+01      9.574e-01
      2.512e-02      1.900e+01      1.708e+00
      2.590e-02      6.000e+00      5.774e-01
      2.671e-02      5.000e+00      1.258e+00
      2.754e-02      1.000e+00      5.000e-01
      2.840e-02              0              0
      2.929e-02              0              0
      3.020e-02              0              0
      3.114e-02              0              0
      3.211e-02              0              0
      3.311e-02              0              0
      3.415e-02              0              0
      3.521e-02              0              0
      3.631e-02              0              0
      3.744e-02              0              0
      3.861e-02              0              0
      3.981e-02              0              0
      4.105e-02              0              0
      4.233e-02              0              0
      4.365e-02              0              0
      4.501e-02              0              0
      4.642e-02              0              0
      4.786e-02              0              0
      4.936e-02              0              0
      5.089e-02              0              0
      5.248e-02              0              0
      5.412e-02              0              0
      5.580e-02              0              0
      5.754e-02              0              0
      5.934e-02              0              0
      6.119e-02              0              0
      6.310e-02              0              0
      6.506e-02              0              0
      6.709e-02              0              0
      6.918e-02              0              0
      7.134e-02              0              0
      7.356e-02              0              0
      7.586e-02              0              0
      7.822e-02              0              0
      8.066e-02              0              0
      8.318e-02              0              0
      8.577e-02              0              0
      8.844e-02              0              0
      9.120e-02              0              0
      9.404e-02              0              0
      9.698e-02              0              0
      1.000e-01              0              0
      1.031e-01              0              0
      1.063e-01              0              0
      1.096e-01              0              0
      1.131e-01              0              0
      1.166e-01              0              0
      1.202e-01              0              0
      1.240e-01              0              0
      1.278e-01              0              0
      1.318e-01              0              0
      1.359e-01              0              0
      1.402e-01              0              0
      1.445e-01              0              0
      1.491e-01              0              0
      1.537e-01              0              0
      1.585e-01              0              0
      1.634e-01              0              0
      1.685e-01              0              0
      1.738e-01              0              0
      1.792e-01              0              0
      1.848e-01              0              0
      1.905e-01              0              0
      1.965e-01              0              0
      2.026e-01              0              0
      2.089e-01              0              0
      2.154e-01              0              0
      2.222e-01              0              0
      2.291e-01              0              0
      2.362e-01              0              0
      2.436e-01              0              0
      2.512e-01              0              0
      2.590e-01              0              0
      2.671e-01              0              0
      2.754e-01              0              0
      2.840e-01              0              0
      2.929e-01              0              0
      3.020e-01              0              0
      3.114e-01              0              0
      3.211e-01              0              0
      3.311e-01              0              0
      3.415e-01              0              0
      3.521e-01              0              0
      3.631e-01              0              0
      3.744e-01              0              0
      3.861e-01              0              0
      3.981e-01              0              0
      4.105e-01              0              0
      4.233e-01              0              0
      4.365e-01              0              0
      4.501e-01              0              0
      4.642e-01              0              0
      4.786e-01              0              0
      4.936e-01              0              0
      5.089e-01              0              0
      5.248e-01              0              0
      5.412e-01              0              0
      5.580e-01              0              0
      5.754e-01              0              0
      5.934e-01              0              0
      6.119e-01              0              0
      6.310e-01              0              0
      6.506e-01              0              0
      6.709e-01              0              0
      6.918e-01              0              0
      7.134e-01              0              0
      7.356e-01              0              0
      7.586e-01              0              0
      7.822e-01              0              0
      8.066e-01              0              0
      8.318e-01              0              0
      8.577e-01              0              0
      8.844e-01              0              0
      9.120e-01              0              0
      9.404e-01              0              0
      9.698e-01              0              0
      1.000e+00
