

          ################################
          !!! G4Backtrace is activated !!!
          ################################


**************************************************************
 Geant4 version Name: geant4-11-00-patch-03 [MT]   (16-September-2022)
  << in Multi-threaded mode >> 
                       Copyright : Geant4 Collaboration
                      References : NIM A 506 (2003), 250-303
                                 : IEEE-TNS 53 (2006), 270-278
                                 : NIM A 835 (2016), 186-225
                             WWW : http://geant4.org/
**************************************************************

Cores available on machine: 4
Threads by default (unless overwritten by macro): 1

Seeds by default (unless overwritten by macro): 583949604, 1034717184

G4SEE path:        /home/tutorial_1/output_4/g4see
Input macro file:  /home/tutorial_1/tutorial_1-4.mac
Output directory:  /home/tutorial_1/output_4

PhysicsList::ConstructParticle

***** Table : Nb of materials = 3 *****

 Material:   VACUUM    density:  0.000 mg/cm3  RadL: 204310098.490 pc   Nucl.Int.Length: 113427284.261 pc 
                       Imean:  19.200 eV   temperature:   2.73 K  pressure:   0.00 atm

   --->  Element: H (H)   Z =  1.0   N =     1   A =  1.008 g/mole
         --->  Isotope:    H1   Z =  1   N =   1   A =   1.01 g/mole   abundance: 99.989 %
         --->  Isotope:    H2   Z =  1   N =   2   A =   2.01 g/mole   abundance:  0.011 %
          ElmMassFraction: 100.00 %  ElmAbundance 100.00 % 


 Material:    G4_Si    density:  2.330 g/cm3   RadL:   9.366 cm   Nucl.Int.Length:  45.660 cm 
                       Imean: 173.000 eV   temperature: 293.15 K  pressure:   1.00 atm

   --->  Element: Si (Si)   Z = 14.0   N =    28   A = 28.085 g/mole
         --->  Isotope:  Si28   Z = 14   N =  28   A =  27.98 g/mole   abundance: 92.230 %
         --->  Isotope:  Si29   Z = 14   N =  29   A =  28.98 g/mole   abundance:  4.683 %
         --->  Isotope:  Si30   Z = 14   N =  30   A =  29.97 g/mole   abundance:  3.087 %
          ElmMassFraction: 100.00 %  ElmAbundance 100.00 % 


 Material: G4_SILICON_DIOXIDE SiO_2   density:  2.320 g/cm3   RadL:  11.658 cm   Nucl.Int.Length:  41.317 cm 
                       Imean: 139.200 eV   temperature: 293.15 K  pressure:   1.00 atm

   --->  Element: Si (Si)   Z = 14.0   N =    28   A = 28.085 g/mole
         --->  Isotope:  Si28   Z = 14   N =  28   A =  27.98 g/mole   abundance: 92.230 %
         --->  Isotope:  Si29   Z = 14   N =  29   A =  28.98 g/mole   abundance:  4.683 %
         --->  Isotope:  Si30   Z = 14   N =  30   A =  29.97 g/mole   abundance:  3.087 %
          ElmMassFraction:  46.74 %  ElmAbundance  33.33 % 

   --->  Element: O (O)   Z =  8.0   N =    16   A = 15.999 g/mole
         --->  Isotope:   O16   Z =  8   N =  16   A =  15.99 g/mole   abundance: 99.757 %
         --->  Isotope:   O17   Z =  8   N =  17   A =  17.00 g/mole   abundance:  0.038 %
         --->  Isotope:   O18   Z =  8   N =  18   A =  18.00 g/mole   abundance:  0.205 %
          ElmMassFraction:  53.26 %  ElmAbundance  66.67 % 



Checking overlaps for volume Oxide:0 (G4Box) ... OK! 
Checking overlaps for volume Bulk:0 (G4Box) ... OK! 
Checking overlaps for volume Sensitive:0 (G4Box) ... OK! 

THE FOLLOWING PHYSICS LISTS HAVE BEEN ACTIVATED:
--> Transportation
--> Decay
--> G4EmStandard_opt4

PhysicsList::ListProcesses: 
                  B+ :  Transportation (1); Decay (6); 
                  B- :  Transportation (1); Decay (6); 
                  B0 :  Transportation (1); Decay (6); 
                 Bc+ :  Transportation (1); Decay (6); 
                 Bc- :  Transportation (1); Decay (6); 
                 Bs0 :  Transportation (1); Decay (6); 
                  D+ :  Transportation (1); Decay (6); 
                  D- :  Transportation (1); Decay (6); 
                  D0 :  Transportation (1); Decay (6); 
                 Ds+ :  Transportation (1); Decay (6); 
                 Ds- :  Transportation (1); Decay (6); 
          GenericIon :  Transportation (1); msc (2); ionIoni (2); nuclearStopping (2); 
                 He3 :  Transportation (1); msc (2); ionIoni (2); nuclearStopping (2); 
               J/psi :  Transportation (1); Decay (6); 
            N(1440)+ :  Transportation (1); Decay (6); 
            N(1440)0 :  Transportation (1); Decay (6); 
            N(1520)+ :  Transportation (1); Decay (6); 
            N(1520)0 :  Transportation (1); Decay (6); 
            N(1535)+ :  Transportation (1); Decay (6); 
            N(1535)0 :  Transportation (1); Decay (6); 
            N(1650)+ :  Transportation (1); Decay (6); 
            N(1650)0 :  Transportation (1); Decay (6); 
            N(1675)+ :  Transportation (1); Decay (6); 
            N(1675)0 :  Transportation (1); Decay (6); 
            N(1680)+ :  Transportation (1); Decay (6); 
            N(1680)0 :  Transportation (1); Decay (6); 
            N(1700)+ :  Transportation (1); Decay (6); 
            N(1700)0 :  Transportation (1); Decay (6); 
            N(1710)+ :  Transportation (1); Decay (6); 
            N(1710)0 :  Transportation (1); Decay (6); 
            N(1720)+ :  Transportation (1); Decay (6); 
            N(1720)0 :  Transportation (1); Decay (6); 
            N(1900)+ :  Transportation (1); Decay (6); 
            N(1900)0 :  Transportation (1); Decay (6); 
            N(1990)+ :  Transportation (1); Decay (6); 
            N(1990)0 :  Transportation (1); Decay (6); 
            N(2090)+ :  Transportation (1); Decay (6); 
            N(2090)0 :  Transportation (1); Decay (6); 
            N(2190)+ :  Transportation (1); Decay (6); 
            N(2190)0 :  Transportation (1); Decay (6); 
            N(2220)+ :  Transportation (1); Decay (6); 
            N(2220)0 :  Transportation (1); Decay (6); 
            N(2250)+ :  Transportation (1); Decay (6); 
            N(2250)0 :  Transportation (1); Decay (6); 
             Upsilon :  Transportation (1); Decay (6); 
           a0(1450)+ :  Transportation (1); Decay (6); 
           a0(1450)- :  Transportation (1); Decay (6); 
           a0(1450)0 :  Transportation (1); Decay (6); 
            a0(980)+ :  Transportation (1); Decay (6); 
            a0(980)- :  Transportation (1); Decay (6); 
            a0(980)0 :  Transportation (1); Decay (6); 
           a1(1260)+ :  Transportation (1); Decay (6); 
           a1(1260)- :  Transportation (1); Decay (6); 
           a1(1260)0 :  Transportation (1); Decay (6); 
           a2(1320)+ :  Transportation (1); Decay (6); 
           a2(1320)- :  Transportation (1); Decay (6); 
           a2(1320)0 :  Transportation (1); Decay (6); 
               alpha :  Transportation (1); msc (2); ionIoni (2); nuclearStopping (2); 
             anti_B0 :  Transportation (1); Decay (6); 
            anti_Bs0 :  Transportation (1); Decay (6); 
             anti_D0 :  Transportation (1); Decay (6); 
            anti_He3 :  Transportation (1); msc (2); hIoni (2); 
       anti_N(1440)+ :  Transportation (1); Decay (6); 
       anti_N(1440)0 :  Transportation (1); Decay (6); 
       anti_N(1520)+ :  Transportation (1); Decay (6); 
       anti_N(1520)0 :  Transportation (1); Decay (6); 
       anti_N(1535)+ :  Transportation (1); Decay (6); 
       anti_N(1535)0 :  Transportation (1); Decay (6); 
       anti_N(1650)+ :  Transportation (1); Decay (6); 
       anti_N(1650)0 :  Transportation (1); Decay (6); 
       anti_N(1675)+ :  Transportation (1); Decay (6); 
       anti_N(1675)0 :  Transportation (1); Decay (6); 
       anti_N(1680)+ :  Transportation (1); Decay (6); 
       anti_N(1680)0 :  Transportation (1); Decay (6); 
       anti_N(1700)+ :  Transportation (1); Decay (6); 
       anti_N(1700)0 :  Transportation (1); Decay (6); 
       anti_N(1710)+ :  Transportation (1); Decay (6); 
       anti_N(1710)0 :  Transportation (1); Decay (6); 
       anti_N(1720)+ :  Transportation (1); Decay (6); 
       anti_N(1720)0 :  Transportation (1); Decay (6); 
       anti_N(1900)+ :  Transportation (1); Decay (6); 
       anti_N(1900)0 :  Transportation (1); Decay (6); 
       anti_N(1990)+ :  Transportation (1); Decay (6); 
       anti_N(1990)0 :  Transportation (1); Decay (6); 
       anti_N(2090)+ :  Transportation (1); Decay (6); 
       anti_N(2090)0 :  Transportation (1); Decay (6); 
       anti_N(2190)+ :  Transportation (1); Decay (6); 
       anti_N(2190)0 :  Transportation (1); Decay (6); 
       anti_N(2220)+ :  Transportation (1); Decay (6); 
       anti_N(2220)0 :  Transportation (1); Decay (6); 
       anti_N(2250)+ :  Transportation (1); Decay (6); 
       anti_N(2250)0 :  Transportation (1); Decay (6); 
          anti_alpha :  Transportation (1); msc (2); hIoni (2); 
        anti_b_quark :  Transportation (1); 
    anti_bb1_diquark :  Transportation (1); 
    anti_bc0_diquark :  Transportation (1); 
    anti_bc1_diquark :  Transportation (1); 
    anti_bd0_diquark :  Transportation (1); 
    anti_bd1_diquark :  Transportation (1); 
    anti_bs0_diquark :  Transportation (1); 
    anti_bs1_diquark :  Transportation (1); 
    anti_bu0_diquark :  Transportation (1); 
    anti_bu1_diquark :  Transportation (1); 
        anti_c_quark :  Transportation (1); 
    anti_cc1_diquark :  Transportation (1); 
    anti_cd0_diquark :  Transportation (1); 
    anti_cd1_diquark :  Transportation (1); 
    anti_cs0_diquark :  Transportation (1); 
    anti_cs1_diquark :  Transportation (1); 
    anti_cu0_diquark :  Transportation (1); 
    anti_cu1_diquark :  Transportation (1); 
        anti_d_quark :  Transportation (1); 
    anti_dd1_diquark :  Transportation (1); 
   anti_delta(1600)+ :  Transportation (1); Decay (6); 
  anti_delta(1600)++ :  Transportation (1); Decay (6); 
   anti_delta(1600)- :  Transportation (1); Decay (6); 
   anti_delta(1600)0 :  Transportation (1); Decay (6); 
   anti_delta(1620)+ :  Transportation (1); Decay (6); 
  anti_delta(1620)++ :  Transportation (1); Decay (6); 
   anti_delta(1620)- :  Transportation (1); Decay (6); 
   anti_delta(1620)0 :  Transportation (1); Decay (6); 
   anti_delta(1700)+ :  Transportation (1); Decay (6); 
  anti_delta(1700)++ :  Transportation (1); Decay (6); 
   anti_delta(1700)- :  Transportation (1); Decay (6); 
   anti_delta(1700)0 :  Transportation (1); Decay (6); 
   anti_delta(1900)+ :  Transportation (1); Decay (6); 
  anti_delta(1900)++ :  Transportation (1); Decay (6); 
   anti_delta(1900)- :  Transportation (1); Decay (6); 
   anti_delta(1900)0 :  Transportation (1); Decay (6); 
   anti_delta(1905)+ :  Transportation (1); Decay (6); 
  anti_delta(1905)++ :  Transportation (1); Decay (6); 
   anti_delta(1905)- :  Transportation (1); Decay (6); 
   anti_delta(1905)0 :  Transportation (1); Decay (6); 
   anti_delta(1910)+ :  Transportation (1); Decay (6); 
  anti_delta(1910)++ :  Transportation (1); Decay (6); 
   anti_delta(1910)- :  Transportation (1); Decay (6); 
   anti_delta(1910)0 :  Transportation (1); Decay (6); 
   anti_delta(1920)+ :  Transportation (1); Decay (6); 
  anti_delta(1920)++ :  Transportation (1); Decay (6); 
   anti_delta(1920)- :  Transportation (1); Decay (6); 
   anti_delta(1920)0 :  Transportation (1); Decay (6); 
   anti_delta(1930)+ :  Transportation (1); Decay (6); 
  anti_delta(1930)++ :  Transportation (1); Decay (6); 
   anti_delta(1930)- :  Transportation (1); Decay (6); 
   anti_delta(1930)0 :  Transportation (1); Decay (6); 
   anti_delta(1950)+ :  Transportation (1); Decay (6); 
  anti_delta(1950)++ :  Transportation (1); Decay (6); 
   anti_delta(1950)- :  Transportation (1); Decay (6); 
   anti_delta(1950)0 :  Transportation (1); Decay (6); 
         anti_delta+ :  Transportation (1); Decay (6); 
        anti_delta++ :  Transportation (1); Decay (6); 
         anti_delta- :  Transportation (1); Decay (6); 
         anti_delta0 :  Transportation (1); Decay (6); 
       anti_deuteron :  Transportation (1); msc (2); hIoni (2); 
  anti_doublehyperH4 :  Transportation (1); Decay (6); 
anti_doublehyperdoubleneutron :  Transportation (1); Decay (6); 
        anti_hyperH4 :  Transportation (1); Decay (6); 
       anti_hyperHe5 :  Transportation (1); Decay (6); 
     anti_hyperalpha :  Transportation (1); Decay (6); 
    anti_hypertriton :  Transportation (1); Decay (6); 
       anti_k(1460)0 :  Transportation (1); Decay (6); 
 anti_k0_star(1430)0 :  Transportation (1); Decay (6); 
      anti_k1(1270)0 :  Transportation (1); Decay (6); 
      anti_k1(1400)0 :  Transportation (1); Decay (6); 
      anti_k2(1770)0 :  Transportation (1); Decay (6); 
 anti_k2_star(1430)0 :  Transportation (1); Decay (6); 
 anti_k2_star(1980)0 :  Transportation (1); Decay (6); 
 anti_k3_star(1780)0 :  Transportation (1); Decay (6); 
  anti_k_star(1410)0 :  Transportation (1); Decay (6); 
  anti_k_star(1680)0 :  Transportation (1); Decay (6); 
        anti_k_star0 :  Transportation (1); Decay (6); 
          anti_kaon0 :  Transportation (1); Decay (6); 
         anti_lambda :  Transportation (1); Decay (6); 
   anti_lambda(1405) :  Transportation (1); Decay (6); 
   anti_lambda(1520) :  Transportation (1); Decay (6); 
   anti_lambda(1600) :  Transportation (1); Decay (6); 
   anti_lambda(1670) :  Transportation (1); Decay (6); 
   anti_lambda(1690) :  Transportation (1); Decay (6); 
   anti_lambda(1800) :  Transportation (1); Decay (6); 
   anti_lambda(1810) :  Transportation (1); Decay (6); 
   anti_lambda(1820) :  Transportation (1); Decay (6); 
   anti_lambda(1830) :  Transportation (1); Decay (6); 
   anti_lambda(1890) :  Transportation (1); Decay (6); 
   anti_lambda(2100) :  Transportation (1); Decay (6); 
   anti_lambda(2110) :  Transportation (1); Decay (6); 
       anti_lambda_b :  Transportation (1); Decay (6); 
      anti_lambda_c+ :  Transportation (1); Decay (6); 
        anti_neutron :  Transportation (1); Decay (6); 
           anti_nu_e :  Transportation (1); 
          anti_nu_mu :  Transportation (1); 
         anti_nu_tau :  Transportation (1); 
         anti_omega- :  Transportation (1); Decay (6); msc (2); hIoni (2); 
       anti_omega_b- :  Transportation (1); Decay (6); 
       anti_omega_c0 :  Transportation (1); Decay (6); 
         anti_proton :  Transportation (1); msc (2); hIoni (2); hBrems (2); hPairProd (2); CoulombScat (2); 
        anti_s_quark :  Transportation (1); 
    anti_sd0_diquark :  Transportation (1); 
    anti_sd1_diquark :  Transportation (1); 
   anti_sigma(1385)+ :  Transportation (1); Decay (6); 
   anti_sigma(1385)- :  Transportation (1); Decay (6); 
   anti_sigma(1385)0 :  Transportation (1); Decay (6); 
   anti_sigma(1660)+ :  Transportation (1); Decay (6); 
   anti_sigma(1660)- :  Transportation (1); Decay (6); 
   anti_sigma(1660)0 :  Transportation (1); Decay (6); 
   anti_sigma(1670)+ :  Transportation (1); Decay (6); 
   anti_sigma(1670)- :  Transportation (1); Decay (6); 
   anti_sigma(1670)0 :  Transportation (1); Decay (6); 
   anti_sigma(1750)+ :  Transportation (1); Decay (6); 
   anti_sigma(1750)- :  Transportation (1); Decay (6); 
   anti_sigma(1750)0 :  Transportation (1); Decay (6); 
   anti_sigma(1775)+ :  Transportation (1); Decay (6); 
   anti_sigma(1775)- :  Transportation (1); Decay (6); 
   anti_sigma(1775)0 :  Transportation (1); Decay (6); 
   anti_sigma(1915)+ :  Transportation (1); Decay (6); 
   anti_sigma(1915)- :  Transportation (1); Decay (6); 
   anti_sigma(1915)0 :  Transportation (1); Decay (6); 
   anti_sigma(1940)+ :  Transportation (1); Decay (6); 
   anti_sigma(1940)- :  Transportation (1); Decay (6); 
   anti_sigma(1940)0 :  Transportation (1); Decay (6); 
   anti_sigma(2030)+ :  Transportation (1); Decay (6); 
   anti_sigma(2030)- :  Transportation (1); Decay (6); 
   anti_sigma(2030)0 :  Transportation (1); Decay (6); 
         anti_sigma+ :  Transportation (1); Decay (6); msc (2); hIoni (2); 
         anti_sigma- :  Transportation (1); Decay (6); msc (2); hIoni (2); 
         anti_sigma0 :  Transportation (1); Decay (6); 
       anti_sigma_b+ :  Transportation (1); Decay (6); 
       anti_sigma_b- :  Transportation (1); Decay (6); 
       anti_sigma_b0 :  Transportation (1); Decay (6); 
       anti_sigma_c+ :  Transportation (1); Decay (6); 
      anti_sigma_c++ :  Transportation (1); Decay (6); 
       anti_sigma_c0 :  Transportation (1); Decay (6); 
    anti_ss1_diquark :  Transportation (1); 
    anti_su0_diquark :  Transportation (1); 
    anti_su1_diquark :  Transportation (1); 
        anti_t_quark :  Transportation (1); 
         anti_triton :  Transportation (1); msc (2); hIoni (2); 
        anti_u_quark :  Transportation (1); 
    anti_ud0_diquark :  Transportation (1); 
    anti_ud1_diquark :  Transportation (1); 
    anti_uu1_diquark :  Transportation (1); 
      anti_xi(1530)- :  Transportation (1); Decay (6); 
      anti_xi(1530)0 :  Transportation (1); Decay (6); 
      anti_xi(1690)- :  Transportation (1); Decay (6); 
      anti_xi(1690)0 :  Transportation (1); Decay (6); 
      anti_xi(1820)- :  Transportation (1); Decay (6); 
      anti_xi(1820)0 :  Transportation (1); Decay (6); 
      anti_xi(1950)- :  Transportation (1); Decay (6); 
      anti_xi(1950)0 :  Transportation (1); Decay (6); 
      anti_xi(2030)- :  Transportation (1); Decay (6); 
      anti_xi(2030)0 :  Transportation (1); Decay (6); 
            anti_xi- :  Transportation (1); Decay (6); msc (2); hIoni (2); 
            anti_xi0 :  Transportation (1); Decay (6); 
          anti_xi_b- :  Transportation (1); Decay (6); 
          anti_xi_b0 :  Transportation (1); Decay (6); 
          anti_xi_c+ :  Transportation (1); Decay (6); 
          anti_xi_c0 :  Transportation (1); Decay (6); 
           b1(1235)+ :  Transportation (1); Decay (6); 
           b1(1235)- :  Transportation (1); Decay (6); 
           b1(1235)0 :  Transportation (1); Decay (6); 
             b_quark :  Transportation (1); 
         bb1_diquark :  Transportation (1); 
         bc0_diquark :  Transportation (1); 
         bc1_diquark :  Transportation (1); 
         bd0_diquark :  Transportation (1); 
         bd1_diquark :  Transportation (1); 
         bs0_diquark :  Transportation (1); 
         bs1_diquark :  Transportation (1); 
         bu0_diquark :  Transportation (1); 
         bu1_diquark :  Transportation (1); 
             c_quark :  Transportation (1); 
         cc1_diquark :  Transportation (1); 
         cd0_diquark :  Transportation (1); 
         cd1_diquark :  Transportation (1); 
     chargedgeantino :  Transportation (1); 
         cs0_diquark :  Transportation (1); 
         cs1_diquark :  Transportation (1); 
         cu0_diquark :  Transportation (1); 
         cu1_diquark :  Transportation (1); 
             d_quark :  Transportation (1); 
         dd1_diquark :  Transportation (1); 
        delta(1600)+ :  Transportation (1); Decay (6); 
       delta(1600)++ :  Transportation (1); Decay (6); 
        delta(1600)- :  Transportation (1); Decay (6); 
        delta(1600)0 :  Transportation (1); Decay (6); 
        delta(1620)+ :  Transportation (1); Decay (6); 
       delta(1620)++ :  Transportation (1); Decay (6); 
        delta(1620)- :  Transportation (1); Decay (6); 
        delta(1620)0 :  Transportation (1); Decay (6); 
        delta(1700)+ :  Transportation (1); Decay (6); 
       delta(1700)++ :  Transportation (1); Decay (6); 
        delta(1700)- :  Transportation (1); Decay (6); 
        delta(1700)0 :  Transportation (1); Decay (6); 
        delta(1900)+ :  Transportation (1); Decay (6); 
       delta(1900)++ :  Transportation (1); Decay (6); 
        delta(1900)- :  Transportation (1); Decay (6); 
        delta(1900)0 :  Transportation (1); Decay (6); 
        delta(1905)+ :  Transportation (1); Decay (6); 
       delta(1905)++ :  Transportation (1); Decay (6); 
        delta(1905)- :  Transportation (1); Decay (6); 
        delta(1905)0 :  Transportation (1); Decay (6); 
        delta(1910)+ :  Transportation (1); Decay (6); 
       delta(1910)++ :  Transportation (1); Decay (6); 
        delta(1910)- :  Transportation (1); Decay (6); 
        delta(1910)0 :  Transportation (1); Decay (6); 
        delta(1920)+ :  Transportation (1); Decay (6); 
       delta(1920)++ :  Transportation (1); Decay (6); 
        delta(1920)- :  Transportation (1); Decay (6); 
        delta(1920)0 :  Transportation (1); Decay (6); 
        delta(1930)+ :  Transportation (1); Decay (6); 
       delta(1930)++ :  Transportation (1); Decay (6); 
        delta(1930)- :  Transportation (1); Decay (6); 
        delta(1930)0 :  Transportation (1); Decay (6); 
        delta(1950)+ :  Transportation (1); Decay (6); 
       delta(1950)++ :  Transportation (1); Decay (6); 
        delta(1950)- :  Transportation (1); Decay (6); 
        delta(1950)0 :  Transportation (1); Decay (6); 
              delta+ :  Transportation (1); Decay (6); 
             delta++ :  Transportation (1); Decay (6); 
              delta- :  Transportation (1); Decay (6); 
              delta0 :  Transportation (1); Decay (6); 
            deuteron :  Transportation (1); msc (2); hIoni (2); 
       doublehyperH4 :  Transportation (1); Decay (6); 
doublehyperdoubleneutron :  Transportation (1); Decay (6); 
                  e+ :  Transportation (1); msc (2); eIoni (2); eBrem (2); ePairProd (2); annihil (2); CoulombScat (2); 
                  e- :  Transportation (1); msc (2); eIoni (2); eBrem (2); ePairProd (2); CoulombScat (2); 
                 eta :  Transportation (1); Decay (6); 
           eta(1295) :  Transportation (1); Decay (6); 
           eta(1405) :  Transportation (1); Decay (6); 
           eta(1475) :  Transportation (1); Decay (6); 
          eta2(1645) :  Transportation (1); Decay (6); 
          eta2(1870) :  Transportation (1); Decay (6); 
           eta_prime :  Transportation (1); Decay (6); 
                etac :  Transportation (1); Decay (6); 
            f0(1370) :  Transportation (1); Decay (6); 
            f0(1500) :  Transportation (1); Decay (6); 
            f0(1710) :  Transportation (1); Decay (6); 
             f0(500) :  Transportation (1); Decay (6); 
             f0(980) :  Transportation (1); Decay (6); 
            f1(1285) :  Transportation (1); Decay (6); 
            f1(1420) :  Transportation (1); Decay (6); 
            f2(1270) :  Transportation (1); Decay (6); 
            f2(1810) :  Transportation (1); Decay (6); 
            f2(2010) :  Transportation (1); Decay (6); 
      f2_prime(1525) :  Transportation (1); Decay (6); 
               gamma :  Transportation (1); phot (2); compt (2); conv (2); Rayl (2); 
            geantino :  Transportation (1); 
               gluon :  Transportation (1); 
            h1(1170) :  Transportation (1); Decay (6); 
            h1(1380) :  Transportation (1); Decay (6); 
             hyperH4 :  Transportation (1); Decay (6); 
            hyperHe5 :  Transportation (1); Decay (6); 
          hyperalpha :  Transportation (1); Decay (6); 
         hypertriton :  Transportation (1); Decay (6); 
            k(1460)+ :  Transportation (1); Decay (6); 
            k(1460)- :  Transportation (1); Decay (6); 
            k(1460)0 :  Transportation (1); Decay (6); 
      k0_star(1430)+ :  Transportation (1); Decay (6); 
      k0_star(1430)- :  Transportation (1); Decay (6); 
      k0_star(1430)0 :  Transportation (1); Decay (6); 
           k1(1270)+ :  Transportation (1); Decay (6); 
           k1(1270)- :  Transportation (1); Decay (6); 
           k1(1270)0 :  Transportation (1); Decay (6); 
           k1(1400)+ :  Transportation (1); Decay (6); 
           k1(1400)- :  Transportation (1); Decay (6); 
           k1(1400)0 :  Transportation (1); Decay (6); 
           k2(1770)+ :  Transportation (1); Decay (6); 
           k2(1770)- :  Transportation (1); Decay (6); 
           k2(1770)0 :  Transportation (1); Decay (6); 
      k2_star(1430)+ :  Transportation (1); Decay (6); 
      k2_star(1430)- :  Transportation (1); Decay (6); 
      k2_star(1430)0 :  Transportation (1); Decay (6); 
      k2_star(1980)+ :  Transportation (1); Decay (6); 
      k2_star(1980)- :  Transportation (1); Decay (6); 
      k2_star(1980)0 :  Transportation (1); Decay (6); 
      k3_star(1780)+ :  Transportation (1); Decay (6); 
      k3_star(1780)- :  Transportation (1); Decay (6); 
      k3_star(1780)0 :  Transportation (1); Decay (6); 
       k_star(1410)+ :  Transportation (1); Decay (6); 
       k_star(1410)- :  Transportation (1); Decay (6); 
       k_star(1410)0 :  Transportation (1); Decay (6); 
       k_star(1680)+ :  Transportation (1); Decay (6); 
       k_star(1680)- :  Transportation (1); Decay (6); 
       k_star(1680)0 :  Transportation (1); Decay (6); 
             k_star+ :  Transportation (1); Decay (6); 
             k_star- :  Transportation (1); Decay (6); 
             k_star0 :  Transportation (1); Decay (6); 
               kaon+ :  Transportation (1); Decay (6); msc (2); hIoni (2); hBrems (2); hPairProd (2); CoulombScat (2); 
               kaon- :  Transportation (1); Decay (6); msc (2); hIoni (2); hBrems (2); hPairProd (2); CoulombScat (2); 
               kaon0 :  Transportation (1); Decay (6); 
              kaon0L :  Transportation (1); Decay (6); 
              kaon0S :  Transportation (1); Decay (6); 
              lambda :  Transportation (1); Decay (6); 
        lambda(1405) :  Transportation (1); Decay (6); 
        lambda(1520) :  Transportation (1); Decay (6); 
        lambda(1600) :  Transportation (1); Decay (6); 
        lambda(1670) :  Transportation (1); Decay (6); 
        lambda(1690) :  Transportation (1); Decay (6); 
        lambda(1800) :  Transportation (1); Decay (6); 
        lambda(1810) :  Transportation (1); Decay (6); 
        lambda(1820) :  Transportation (1); Decay (6); 
        lambda(1830) :  Transportation (1); Decay (6); 
        lambda(1890) :  Transportation (1); Decay (6); 
        lambda(2100) :  Transportation (1); Decay (6); 
        lambda(2110) :  Transportation (1); Decay (6); 
            lambda_b :  Transportation (1); Decay (6); 
           lambda_c+ :  Transportation (1); Decay (6); 
                 mu+ :  Transportation (1); Decay (6); msc (2); muIoni (2); muBrems (2); muPairProd (2); CoulombScat (2); 
                 mu- :  Transportation (1); Decay (6); msc (2); muIoni (2); muBrems (2); muPairProd (2); CoulombScat (2); 
             neutron :  Transportation (1); Decay (6); 
                nu_e :  Transportation (1); 
               nu_mu :  Transportation (1); 
              nu_tau :  Transportation (1); 
               omega :  Transportation (1); Decay (6); 
         omega(1420) :  Transportation (1); Decay (6); 
         omega(1650) :  Transportation (1); Decay (6); 
              omega- :  Transportation (1); Decay (6); msc (2); hIoni (2); 
        omega3(1670) :  Transportation (1); Decay (6); 
            omega_b- :  Transportation (1); Decay (6); 
            omega_c0 :  Transportation (1); Decay (6); 
       opticalphoton :  Transportation (1); 
                 phi :  Transportation (1); Decay (6); 
           phi(1680) :  Transportation (1); Decay (6); 
          phi3(1850) :  Transportation (1); Decay (6); 
           pi(1300)+ :  Transportation (1); Decay (6); 
           pi(1300)- :  Transportation (1); Decay (6); 
           pi(1300)0 :  Transportation (1); Decay (6); 
                 pi+ :  Transportation (1); Decay (6); msc (2); hIoni (2); hBrems (2); hPairProd (2); CoulombScat (2); 
                 pi- :  Transportation (1); Decay (6); msc (2); hIoni (2); hBrems (2); hPairProd (2); CoulombScat (2); 
                 pi0 :  Transportation (1); Decay (6); 
          pi2(1670)+ :  Transportation (1); Decay (6); 
          pi2(1670)- :  Transportation (1); Decay (6); 
          pi2(1670)0 :  Transportation (1); Decay (6); 
              proton :  Transportation (1); msc (2); hIoni (2); hBrems (2); hPairProd (2); CoulombScat (2); nuclearStopping (2); 
          rho(1450)+ :  Transportation (1); Decay (6); 
          rho(1450)- :  Transportation (1); Decay (6); 
          rho(1450)0 :  Transportation (1); Decay (6); 
          rho(1700)+ :  Transportation (1); Decay (6); 
          rho(1700)- :  Transportation (1); Decay (6); 
          rho(1700)0 :  Transportation (1); Decay (6); 
                rho+ :  Transportation (1); Decay (6); 
                rho- :  Transportation (1); Decay (6); 
                rho0 :  Transportation (1); Decay (6); 
         rho3(1690)+ :  Transportation (1); Decay (6); 
         rho3(1690)- :  Transportation (1); Decay (6); 
         rho3(1690)0 :  Transportation (1); Decay (6); 
             s_quark :  Transportation (1); 
         sd0_diquark :  Transportation (1); 
         sd1_diquark :  Transportation (1); 
        sigma(1385)+ :  Transportation (1); Decay (6); 
        sigma(1385)- :  Transportation (1); Decay (6); 
        sigma(1385)0 :  Transportation (1); Decay (6); 
        sigma(1660)+ :  Transportation (1); Decay (6); 
        sigma(1660)- :  Transportation (1); Decay (6); 
        sigma(1660)0 :  Transportation (1); Decay (6); 
        sigma(1670)+ :  Transportation (1); Decay (6); 
        sigma(1670)- :  Transportation (1); Decay (6); 
        sigma(1670)0 :  Transportation (1); Decay (6); 
        sigma(1750)+ :  Transportation (1); Decay (6); 
        sigma(1750)- :  Transportation (1); Decay (6); 
        sigma(1750)0 :  Transportation (1); Decay (6); 
        sigma(1775)+ :  Transportation (1); Decay (6); 
        sigma(1775)- :  Transportation (1); Decay (6); 
        sigma(1775)0 :  Transportation (1); Decay (6); 
        sigma(1915)+ :  Transportation (1); Decay (6); 
        sigma(1915)- :  Transportation (1); Decay (6); 
        sigma(1915)0 :  Transportation (1); Decay (6); 
        sigma(1940)+ :  Transportation (1); Decay (6); 
        sigma(1940)- :  Transportation (1); Decay (6); 
        sigma(1940)0 :  Transportation (1); Decay (6); 
        sigma(2030)+ :  Transportation (1); Decay (6); 
        sigma(2030)- :  Transportation (1); Decay (6); 
        sigma(2030)0 :  Transportation (1); Decay (6); 
              sigma+ :  Transportation (1); Decay (6); msc (2); hIoni (2); 
              sigma- :  Transportation (1); Decay (6); msc (2); hIoni (2); 
              sigma0 :  Transportation (1); Decay (6); 
            sigma_b+ :  Transportation (1); Decay (6); 
            sigma_b- :  Transportation (1); Decay (6); 
            sigma_b0 :  Transportation (1); Decay (6); 
            sigma_c+ :  Transportation (1); Decay (6); 
           sigma_c++ :  Transportation (1); Decay (6); 
            sigma_c0 :  Transportation (1); Decay (6); 
         ss1_diquark :  Transportation (1); 
         su0_diquark :  Transportation (1); 
         su1_diquark :  Transportation (1); 
             t_quark :  Transportation (1); 
                tau+ :  Transportation (1); Decay (6); msc (2); hIoni (2); 
                tau- :  Transportation (1); Decay (6); msc (2); hIoni (2); 
              triton :  Transportation (1); Decay (6); msc (2); hIoni (2); 
             u_quark :  Transportation (1); 
         ud0_diquark :  Transportation (1); 
         ud1_diquark :  Transportation (1); 
         uu1_diquark :  Transportation (1); 
           xi(1530)- :  Transportation (1); Decay (6); 
           xi(1530)0 :  Transportation (1); Decay (6); 
           xi(1690)- :  Transportation (1); Decay (6); 
           xi(1690)0 :  Transportation (1); Decay (6); 
           xi(1820)- :  Transportation (1); Decay (6); 
           xi(1820)0 :  Transportation (1); Decay (6); 
           xi(1950)- :  Transportation (1); Decay (6); 
           xi(1950)0 :  Transportation (1); Decay (6); 
           xi(2030)- :  Transportation (1); Decay (6); 
           xi(2030)0 :  Transportation (1); Decay (6); 
                 xi- :  Transportation (1); Decay (6); msc (2); hIoni (2); 
                 xi0 :  Transportation (1); Decay (6); 
               xi_b- :  Transportation (1); Decay (6); 
               xi_b0 :  Transportation (1); Decay (6); 
               xi_c+ :  Transportation (1); Decay (6); 
               xi_c0 :  Transportation (1); Decay (6); 
=======================================================================
======                 Electromagnetic Physics Parameters      ========
=======================================================================
LPM effect enabled                                 1
Enable creation and use of sampling tables         0
Apply cuts on all EM processes                     0
Use general process                                0
Enable linear polarisation for gamma               0
Enable sampling of quantum entanglement            0
X-section factor for integral approach             0.8
Min kinetic energy for tables                      100 eV 
Max kinetic energy for tables                      100 TeV
Number of bins per decade of a table               20
Verbose level                                      1
Verbose level for worker thread                    0
Bremsstrahlung energy threshold above which 
  primary e+- is added to the list of secondary    100 TeV
Bremsstrahlung energy threshold above which primary
  muon/hadron is added to the list of secondary    100 TeV
Lowest triplet kinetic energy                      1 MeV
Enable sampling of gamma linear polarisation       0
5D gamma conversion model type                     0
5D gamma conversion model on isolated ion          0
Livermore data directory                           livermore
=======================================================================
======                 Ionisation Parameters                   ========
=======================================================================
Step function for e+-                              (0.2, 0.01 mm)
Step function for muons/hadrons                    (0.1, 0.05 mm)
Step function for light ions                       (0.1, 0.02 mm)
Step function for general ions                     (0.1, 0.001 mm)
Lowest e+e- kinetic energy                         100 eV 
Lowest muon/hadron kinetic energy                  1 keV
Fluctuations of dE/dx are enabled                  1
Use ICRU90 data                                    1
Use built-in Birks satuaration                     0
Build CSDA range enabled                           0
Use cut as a final range enabled                   0
Enable angular generator interface                 1
Max kinetic energy for CSDA tables                 1 GeV
Max kinetic energy for NIEL computation            1 MeV
Linear loss limit                                  0.01
Read data from file for e+e- pair production by mu 0
=======================================================================
======                 Multiple Scattering Parameters          ========
=======================================================================
Type of msc step limit algorithm for e+-           2
Type of msc step limit algorithm for muons/hadrons 0
Msc lateral displacement for e+- enabled           1
Msc lateral displacement for muons and hadrons     1
Urban msc model lateral displacement alg96         1
Range factor for msc step limit for e+-            0.08
Range factor for msc step limit for muons/hadrons  0.2
Geometry factor for msc step limitation of e+-     2.5
Safety factor for msc step limit for e+-           0.6
Skin parameter for msc step limitation of e+-      3
Lambda limit for msc step limit for e+-            1 mm
Use Mott correction for e- scattering              1
Factor used for dynamic computation of angular 
  limit between single and multiple scattering     1
Fixed angular limit between single 
  and multiple scattering                          3.1416 rad
Upper energy limit for e+- multiple scattering     100 MeV
Type of electron single scattering model           0
Type of nuclear form-factor                        1
Screening factor                                   1
=======================================================================
======                 Atomic Deexcitation Parameters          ========
=======================================================================
Fluorescence enabled                               1
Fluorescence Bearden data files enabled            0
Fluorescence ANSTO data files enabled              0
Auger electron cascade enabled                     0
PIXE atomic de-excitation enabled                  0
De-excitation module ignores cuts                  0
Type of PIXE cross section for hadrons             Empirical
Type of PIXE cross section for e+-                 Livermore
=======================================================================

### ===  Deexcitation model UAtomDeexcitation is activated for 4 regions:
          DefaultRegionForTheWorld  1  0  0
          BEOL  1  0  0
          Bulk  1  0  0
          Sensitive  1  0  0
### ===  Ignore cuts flag:   0

phot:  for gamma SubType=12 BuildTable=0
      LambdaPrime table from 200 keV to 100 TeV in 174 bins 
      ===== EM models for the G4Region  DefaultRegionForTheWorld ======
 LivermorePhElectric : Emin=    0 eV  Emax=  100 TeV  SauterGavrila Fluo

compt:  for gamma SubType=13 BuildTable=1
      Lambda table from 100 eV  to 1 MeV, 20 bins/decade, spline: 1
      LambdaPrime table from 1 MeV to 100 TeV in 160 bins 
      ===== EM models for the G4Region  DefaultRegionForTheWorld ======
   LowEPComptonModel : Emin=    0 eV  Emax=   20 MeV Fluo
        KleinNishina : Emin=   20 MeV Emax=  100 TeV Fluo

conv:  for gamma SubType=14 BuildTable=1
      Lambda table from 1.022 MeV to 100 TeV, 20 bins/decade, spline: 1
      ===== EM models for the G4Region  DefaultRegionForTheWorld ======
      BetheHeitler5D : Emin=    0 eV  Emax=  100 TeV  ModifiedTsai

Rayl:  for gamma SubType=11 BuildTable=1
      Lambda table from 100 eV  to 100 keV, 20 bins/decade, spline: 0
      LambdaPrime table from 100 keV to 100 TeV in 180 bins 
      ===== EM models for the G4Region  DefaultRegionForTheWorld ======
   LivermoreRayleigh : Emin=    0 eV  Emax=  100 TeV  CullenGenerator

msc:  for e-  SubType= 10
      ===== EM models for the G4Region  DefaultRegionForTheWorld ======
  GoudsmitSaunderson : Emin=    0 eV  Emax=  100 MeV Nbins=120 100 eV  - 100 MeV
          StepLim=SafetyPlus Rfact=0.08 Gfact=2.5 Sfact=0.6 DispFlag:1 Skin=3 Llim=1 mm
        WentzelVIUni : Emin=  100 MeV Emax=  100 TeV Nbins=120 100 MeV - 100 TeV
          StepLim=SafetyPlus Rfact=0.08 Gfact=2.5 Sfact=0.6 DispFlag:1 Skin=3 Llim=1 mm

eIoni:  for e-  XStype:1  SubType=2
      dE/dx and range tables from 100 eV  to 100 TeV in 240 bins
      Lambda tables from threshold to 100 TeV, 20 bins/decade, spline: 1
      StepFunction=(0.2, 0.01 mm), integ: 1, fluct: 1, linLossLim= 0.01
      ===== EM models for the G4Region  DefaultRegionForTheWorld ======
       LowEnergyIoni : Emin=    0 eV  Emax=  100 keV  deltaVI
        MollerBhabha : Emin=  100 keV Emax=  100 TeV  deltaVI

eBrem:  for e-  XStype:4  SubType=3
      dE/dx and range tables from 100 eV  to 100 TeV in 240 bins
      Lambda tables from threshold to 100 TeV, 20 bins/decade, spline: 1
      LPM flag: 1 for E > 1 GeV,  VertexHighEnergyTh(GeV)= 100000
      ===== EM models for the G4Region  DefaultRegionForTheWorld ======
             eBremSB : Emin=    0 eV  Emax=    1 GeV  AngularGen2BS
            eBremLPM : Emin=    1 GeV Emax=  100 TeV  AngularGen2BS

ePairProd:  for e-  XStype:1  SubType=4
      dE/dx and range tables from 100 eV  to 100 TeV in 240 bins
      Lambda tables from threshold to 100 TeV, 20 bins/decade, spline: 0
      Sampling table 25x1001; from 0.1 GeV to 100 TeV 
      ===== EM models for the G4Region  DefaultRegionForTheWorld ======
           ePairProd : Emin=    0 eV  Emax=  100 TeV  ModifiedMephi

CoulombScat:  for e- XStype:1 SubType=1 BuildTable=1
      Lambda table from 100 MeV to 100 TeV, 20 bins/decade, spline: 0
      ThetaMin(p) < Theta(degree) < 180; pLimit(GeV^1)= 0.139531
      ===== EM models for the G4Region  DefaultRegionForTheWorld ======
  eCoulombScattering : Emin=  100 MeV Emax=  100 TeV

msc:  for e+  SubType= 10
      ===== EM models for the G4Region  DefaultRegionForTheWorld ======
  GoudsmitSaunderson : Emin=    0 eV  Emax=  100 MeV Nbins=120 100 eV  - 100 MeV
          StepLim=SafetyPlus Rfact=0.08 Gfact=2.5 Sfact=0.6 DispFlag:1 Skin=3 Llim=1 mm
        WentzelVIUni : Emin=  100 MeV Emax=  100 TeV Nbins=120 100 MeV - 100 TeV
          StepLim=SafetyPlus Rfact=0.08 Gfact=2.5 Sfact=0.6 DispFlag:1 Skin=3 Llim=1 mm

eIoni:  for e+  XStype:1  SubType=2
      dE/dx and range tables from 100 eV  to 100 TeV in 240 bins
      Lambda tables from threshold to 100 TeV, 20 bins/decade, spline: 1
      StepFunction=(0.2, 0.01 mm), integ: 1, fluct: 1, linLossLim= 0.01
      ===== EM models for the G4Region  DefaultRegionForTheWorld ======
             PenIoni : Emin=    0 eV  Emax=  100 keV
        MollerBhabha : Emin=  100 keV Emax=  100 TeV  deltaVI
      ===== Limit on energy threshold has been applied 

eBrem:  for e+  XStype:4  SubType=3
      dE/dx and range tables from 100 eV  to 100 TeV in 240 bins
      Lambda tables from threshold to 100 TeV, 20 bins/decade, spline: 1
      LPM flag: 1 for E > 1 GeV,  VertexHighEnergyTh(GeV)= 100000
      ===== EM models for the G4Region  DefaultRegionForTheWorld ======
             eBremSB : Emin=    0 eV  Emax=    1 GeV  AngularGen2BS
            eBremLPM : Emin=    1 GeV Emax=  100 TeV  AngularGen2BS

ePairProd:  for e+  XStype:1  SubType=4
      dE/dx and range tables from 100 eV  to 100 TeV in 240 bins
      Lambda tables from threshold to 100 TeV, 20 bins/decade, spline: 0
      Sampling table 25x1001; from 0.1 GeV to 100 TeV 
      ===== EM models for the G4Region  DefaultRegionForTheWorld ======
           ePairProd : Emin=    0 eV  Emax=  100 TeV  ModifiedMephi

annihil:  for e+ XStype:2 SubType=5 BuildTable=0
      ===== EM models for the G4Region  DefaultRegionForTheWorld ======
            eplus2gg : Emin=    0 eV  Emax=  100 TeV

CoulombScat:  for e+ XStype:1 SubType=1 BuildTable=1
      Lambda table from 100 MeV to 100 TeV, 20 bins/decade, spline: 0
      ThetaMin(p) < Theta(degree) < 180; pLimit(GeV^1)= 0.139531
      ===== EM models for the G4Region  DefaultRegionForTheWorld ======
  eCoulombScattering : Emin=  100 MeV Emax=  100 TeV

msc:  for proton  SubType= 10
      ===== EM models for the G4Region  DefaultRegionForTheWorld ======
        WentzelVIUni : Emin=    0 eV  Emax=  100 TeV Nbins=240 100 eV  - 100 TeV
          StepLim=Minimal Rfact=0.2 Gfact=2.5 Sfact=0.6 DispFlag:1 Skin=3 Llim=1 mm

hIoni:  for proton  XStype:1  SubType=2
      dE/dx and range tables from 100 eV  to 100 TeV in 240 bins
      Lambda tables from threshold to 100 TeV, 20 bins/decade, spline: 1
      StepFunction=(0.1, 0.05 mm), integ: 1, fluct: 1, linLossLim= 0.01
      ===== EM models for the G4Region  DefaultRegionForTheWorld ======
               Bragg : Emin=    0 eV  Emax=    2 MeV  deltaVI
          BetheBloch : Emin=    2 MeV Emax=  100 TeV  deltaVI
      ===== Limit on energy threshold has been applied 

hBrems:  for proton  XStype:1  SubType=3
      dE/dx and range tables from 100 eV  to 100 TeV in 240 bins
      Lambda tables from threshold to 100 TeV, 20 bins/decade, spline: 0
      ===== EM models for the G4Region  DefaultRegionForTheWorld ======
               hBrem : Emin=    0 eV  Emax=  100 TeV  ModifiedMephi
      ===== Limit on energy threshold has been applied 

hPairProd:  for proton  XStype:1  SubType=4
      dE/dx and range tables from 100 eV  to 100 TeV in 240 bins
      Lambda tables from threshold to 100 TeV, 20 bins/decade, spline: 0
      Sampling table 17x1001; from 7.50618 GeV to 100 TeV 
      ===== EM models for the G4Region  DefaultRegionForTheWorld ======
           hPairProd : Emin=    0 eV  Emax=  100 TeV  ModifiedMephi

CoulombScat:  for proton XStype:1 SubType=1 BuildTable=1
      Lambda table from threshold  to 100 TeV, 20 bins/decade, spline: 0
      ThetaMin(p) < Theta(degree) < 180; pLimit(GeV^1)= 0.139531
      ===== EM models for the G4Region  DefaultRegionForTheWorld ======
  eCoulombScattering : Emin=    0 eV  Emax=  100 TeV

nuclearStopping:  for proton SubType=8 BuildTable=0
      ===== EM models for the G4Region  DefaultRegionForTheWorld ======
   ICRU49NucStopping : Emin=    0 eV  Emax=    1 MeV

msc:  for GenericIon  SubType= 10
      ===== EM models for the G4Region  DefaultRegionForTheWorld ======
            UrbanMsc : Emin=    0 eV  Emax=  100 TeV
          StepLim=Minimal Rfact=0.2 Gfact=2.5 Sfact=0.6 DispFlag:1 Skin=3 Llim=1 mm

ionIoni:  for GenericIon  XStype:1  SubType=2
      dE/dx and range tables from 100 eV  to 100 TeV in 240 bins
      Lambda tables from threshold to 100 TeV, 20 bins/decade, spline: 1
      StepFunction=(0.1, 0.02 mm), integ: 1, fluct: 1, linLossLim= 0.02
      ===== EM models for the G4Region  DefaultRegionForTheWorld ======
         ParamICRU73 : Emin=    0 eV  Emax=  100 TeV  deltaVI
      ===== Limit on energy threshold has been applied 

nuclearStopping:  for GenericIon SubType=8 BuildTable=0
      ===== EM models for the G4Region  DefaultRegionForTheWorld ======
   ICRU49NucStopping : Emin=    0 eV  Emax=    1 MeV

msc:  for alpha  SubType= 10
      ===== EM models for the G4Region  DefaultRegionForTheWorld ======
            UrbanMsc : Emin=    0 eV  Emax=  100 TeV
          StepLim=Minimal Rfact=0.2 Gfact=2.5 Sfact=0.6 DispFlag:1 Skin=3 Llim=1 mm

ionIoni:  for alpha  XStype:1  SubType=2
      dE/dx and range tables from 100 eV  to 100 TeV in 240 bins
      Lambda tables from threshold to 100 TeV, 20 bins/decade, spline: 1
      StepFunction=(0.1, 0.02 mm), integ: 1, fluct: 1, linLossLim= 0.02
      ===== EM models for the G4Region  DefaultRegionForTheWorld ======
            BraggIon : Emin=    0 eV  Emax=7.9452 MeV  deltaVI
          BetheBloch : Emin=7.9452 MeV Emax=  100 TeV  deltaVI
      ===== Limit on energy threshold has been applied 

nuclearStopping:  for alpha SubType=8 BuildTable=0
      ===== EM models for the G4Region  DefaultRegionForTheWorld ======
   ICRU49NucStopping : Emin=    0 eV  Emax=    1 MeV

msc:  for anti_proton  SubType= 10
      ===== EM models for the G4Region  DefaultRegionForTheWorld ======
        WentzelVIUni : Emin=    0 eV  Emax=  100 TeV Nbins=240 100 eV  - 100 TeV
          StepLim=Minimal Rfact=0.2 Gfact=2.5 Sfact=0.6 DispFlag:1 Skin=3 Llim=1 mm

hIoni:  for anti_proton  XStype:1  SubType=2
      dE/dx and range tables from 100 eV  to 100 TeV in 240 bins
      Lambda tables from threshold to 100 TeV, 20 bins/decade, spline: 1
      StepFunction=(0.1, 0.05 mm), integ: 1, fluct: 1, linLossLim= 0.01
      ===== EM models for the G4Region  DefaultRegionForTheWorld ======
            ICRU73QO : Emin=    0 eV  Emax=    2 MeV  deltaVI
          BetheBloch : Emin=    2 MeV Emax=  100 TeV  deltaVI
      ===== Limit on energy threshold has been applied 

hBrems:  for anti_proton  XStype:1  SubType=3
      dE/dx and range tables from 100 eV  to 100 TeV in 240 bins
      Lambda tables from threshold to 100 TeV, 20 bins/decade, spline: 0
      ===== EM models for the G4Region  DefaultRegionForTheWorld ======
               hBrem : Emin=    0 eV  Emax=  100 TeV  ModifiedMephi
      ===== Limit on energy threshold has been applied 

hPairProd:  for anti_proton  XStype:1  SubType=4
      dE/dx and range tables from 100 eV  to 100 TeV in 240 bins
      Lambda tables from threshold to 100 TeV, 20 bins/decade, spline: 0
      Sampling table 17x1001; from 7.50618 GeV to 100 TeV 
      ===== EM models for the G4Region  DefaultRegionForTheWorld ======
           hPairProd : Emin=    0 eV  Emax=  100 TeV  ModifiedMephi

CoulombScat:  for anti_proton XStype:1 SubType=1 BuildTable=1
      Lambda table from threshold  to 100 TeV, 20 bins/decade, spline: 0
      ThetaMin(p) < Theta(degree) < 180; pLimit(GeV^1)= 0.139531
      ===== EM models for the G4Region  DefaultRegionForTheWorld ======
  eCoulombScattering : Emin=    0 eV  Emax=  100 TeV

msc:  for kaon+  SubType= 10
      ===== EM models for the G4Region  DefaultRegionForTheWorld ======
        WentzelVIUni : Emin=    0 eV  Emax=  100 TeV Nbins=240 100 eV  - 100 TeV
          StepLim=Minimal Rfact=0.2 Gfact=2.5 Sfact=0.6 DispFlag:1 Skin=3 Llim=1 mm

hIoni:  for kaon+  XStype:1  SubType=2
      dE/dx and range tables from 100 eV  to 100 TeV in 240 bins
      Lambda tables from threshold to 100 TeV, 20 bins/decade, spline: 1
      StepFunction=(0.1, 0.05 mm), integ: 1, fluct: 1, linLossLim= 0.01
      ===== EM models for the G4Region  DefaultRegionForTheWorld ======
               Bragg : Emin=    0 eV  Emax=1.05231 MeV  deltaVI
          BetheBloch : Emin=1.05231 MeV Emax=  100 TeV  deltaVI
      ===== Limit on energy threshold has been applied 

hBrems:  for kaon+  XStype:1  SubType=3
      dE/dx and range tables from 100 eV  to 100 TeV in 240 bins
      Lambda tables from threshold to 100 TeV, 20 bins/decade, spline: 0
      ===== EM models for the G4Region  DefaultRegionForTheWorld ======
               hBrem : Emin=    0 eV  Emax=  100 TeV  ModifiedMephi
      ===== Limit on energy threshold has been applied 

hPairProd:  for kaon+  XStype:1  SubType=4
      dE/dx and range tables from 100 eV  to 100 TeV in 240 bins
      Lambda tables from threshold to 100 TeV, 20 bins/decade, spline: 0
      Sampling table 18x1001; from 3.94942 GeV to 100 TeV 
      ===== EM models for the G4Region  DefaultRegionForTheWorld ======
           hPairProd : Emin=    0 eV  Emax=  100 TeV  ModifiedMephi

CoulombScat:  for kaon+ XStype:1 SubType=1 BuildTable=1
      Lambda table from threshold  to 100 TeV, 20 bins/decade, spline: 0
      ThetaMin(p) < Theta(degree) < 180; pLimit(GeV^1)= 0.139531
      ===== EM models for the G4Region  DefaultRegionForTheWorld ======
  eCoulombScattering : Emin=    0 eV  Emax=  100 TeV

msc:  for kaon-  SubType= 10
      ===== EM models for the G4Region  DefaultRegionForTheWorld ======
        WentzelVIUni : Emin=    0 eV  Emax=  100 TeV Nbins=240 100 eV  - 100 TeV
          StepLim=Minimal Rfact=0.2 Gfact=2.5 Sfact=0.6 DispFlag:1 Skin=3 Llim=1 mm

hIoni:  for kaon-  XStype:1  SubType=2
      dE/dx and range tables from 100 eV  to 100 TeV in 240 bins
      Lambda tables from threshold to 100 TeV, 20 bins/decade, spline: 1
      StepFunction=(0.1, 0.05 mm), integ: 1, fluct: 1, linLossLim= 0.01
      ===== EM models for the G4Region  DefaultRegionForTheWorld ======
            ICRU73QO : Emin=    0 eV  Emax=1.05231 MeV  deltaVI
          BetheBloch : Emin=1.05231 MeV Emax=  100 TeV  deltaVI
      ===== Limit on energy threshold has been applied 

hBrems:  for kaon-  XStype:1  SubType=3
      dE/dx and range tables from 100 eV  to 100 TeV in 240 bins
      Lambda tables from threshold to 100 TeV, 20 bins/decade, spline: 0
      ===== EM models for the G4Region  DefaultRegionForTheWorld ======
               hBrem : Emin=    0 eV  Emax=  100 TeV  ModifiedMephi
      ===== Limit on energy threshold has been applied 

hPairProd:  for kaon-  XStype:1  SubType=4
      dE/dx and range tables from 100 eV  to 100 TeV in 240 bins
      Lambda tables from threshold to 100 TeV, 20 bins/decade, spline: 0
      Sampling table 18x1001; from 3.94942 GeV to 100 TeV 
      ===== EM models for the G4Region  DefaultRegionForTheWorld ======
           hPairProd : Emin=    0 eV  Emax=  100 TeV  ModifiedMephi

CoulombScat:  for kaon- XStype:1 SubType=1 BuildTable=1
      Used Lambda table of kaon+
      ThetaMin(p) < Theta(degree) < 180; pLimit(GeV^1)= 0.139531
      ===== EM models for the G4Region  DefaultRegionForTheWorld ======
  eCoulombScattering : Emin=    0 eV  Emax=  100 TeV

msc:  for mu+  SubType= 10
      ===== EM models for the G4Region  DefaultRegionForTheWorld ======
        WentzelVIUni : Emin=    0 eV  Emax=  100 TeV Nbins=240 100 eV  - 100 TeV
          StepLim=Minimal Rfact=0.2 Gfact=2.5 Sfact=0.6 DispFlag:1 Skin=3 Llim=1 mm

muIoni:  for mu+  XStype:1  SubType=2
      dE/dx and range tables from 100 eV  to 100 TeV in 240 bins
      Lambda tables from threshold to 100 TeV, 20 bins/decade, spline: 1
      StepFunction=(0.1, 0.05 mm), integ: 1, fluct: 1, linLossLim= 0.01
      ===== EM models for the G4Region  DefaultRegionForTheWorld ======
               Bragg : Emin=    0 eV  Emax=  200 keV  deltaVI
          BetheBloch : Emin=  200 keV Emax=    1 GeV  deltaVI
        MuBetheBloch : Emin=    1 GeV Emax=  100 TeV
      ===== Limit on energy threshold has been applied 

muBrems:  for mu+  XStype:1  SubType=3
      dE/dx and range tables from 100 eV  to 100 TeV in 240 bins
      Lambda tables from threshold to 100 TeV, 20 bins/decade, spline: 0
      ===== EM models for the G4Region  DefaultRegionForTheWorld ======
              MuBrem : Emin=    0 eV  Emax=  100 TeV  ModifiedMephi
      ===== Limit on energy threshold has been applied 

muPairProd:  for mu+  XStype:1  SubType=4
      dE/dx and range tables from 100 eV  to 100 TeV in 240 bins
      Lambda tables from threshold to 100 TeV, 20 bins/decade, spline: 0
      Sampling table 21x1001; from 1 GeV to 100 TeV 
      ===== EM models for the G4Region  DefaultRegionForTheWorld ======
          muPairProd : Emin=    0 eV  Emax=  100 TeV  ModifiedMephi

CoulombScat:  for mu+ XStype:1 SubType=1 BuildTable=1
      Lambda table from threshold  to 100 TeV, 20 bins/decade, spline: 0
      ThetaMin(p) < Theta(degree) < 180; pLimit(GeV^1)= 0.139531
      ===== EM models for the G4Region  DefaultRegionForTheWorld ======
  eCoulombScattering : Emin=    0 eV  Emax=  100 TeV

msc:  for mu-  SubType= 10
      ===== EM models for the G4Region  DefaultRegionForTheWorld ======
        WentzelVIUni : Emin=    0 eV  Emax=  100 TeV Nbins=240 100 eV  - 100 TeV
          StepLim=Minimal Rfact=0.2 Gfact=2.5 Sfact=0.6 DispFlag:1 Skin=3 Llim=1 mm

muIoni:  for mu-  XStype:1  SubType=2
      dE/dx and range tables from 100 eV  to 100 TeV in 240 bins
      Lambda tables from threshold to 100 TeV, 20 bins/decade, spline: 1
      StepFunction=(0.1, 0.05 mm), integ: 1, fluct: 1, linLossLim= 0.01
      ===== EM models for the G4Region  DefaultRegionForTheWorld ======
            ICRU73QO : Emin=    0 eV  Emax=  200 keV  deltaVI
          BetheBloch : Emin=  200 keV Emax=    1 GeV  deltaVI
        MuBetheBloch : Emin=    1 GeV Emax=  100 TeV
      ===== Limit on energy threshold has been applied 

muBrems:  for mu-  XStype:1  SubType=3
      dE/dx and range tables from 100 eV  to 100 TeV in 240 bins
      Lambda tables from threshold to 100 TeV, 20 bins/decade, spline: 0
      ===== EM models for the G4Region  DefaultRegionForTheWorld ======
              MuBrem : Emin=    0 eV  Emax=  100 TeV  ModifiedMephi
      ===== Limit on energy threshold has been applied 

muPairProd:  for mu-  XStype:1  SubType=4
      dE/dx and range tables from 100 eV  to 100 TeV in 240 bins
      Lambda tables from threshold to 100 TeV, 20 bins/decade, spline: 0
      Sampling table 21x1001; from 1 GeV to 100 TeV 
      ===== EM models for the G4Region  DefaultRegionForTheWorld ======
          muPairProd : Emin=    0 eV  Emax=  100 TeV  ModifiedMephi

CoulombScat:  for mu- XStype:1 SubType=1 BuildTable=1
      Used Lambda table of mu+
      ThetaMin(p) < Theta(degree) < 180; pLimit(GeV^1)= 0.139531
      ===== EM models for the G4Region  DefaultRegionForTheWorld ======
  eCoulombScattering : Emin=    0 eV  Emax=  100 TeV

msc:  for pi+  SubType= 10
      ===== EM models for the G4Region  DefaultRegionForTheWorld ======
        WentzelVIUni : Emin=    0 eV  Emax=  100 TeV Nbins=240 100 eV  - 100 TeV
          StepLim=Minimal Rfact=0.2 Gfact=2.5 Sfact=0.6 DispFlag:1 Skin=3 Llim=1 mm

hIoni:  for pi+  XStype:1  SubType=2
      dE/dx and range tables from 100 eV  to 100 TeV in 240 bins
      Lambda tables from threshold to 100 TeV, 20 bins/decade, spline: 1
      StepFunction=(0.1, 0.05 mm), integ: 1, fluct: 1, linLossLim= 0.01
      ===== EM models for the G4Region  DefaultRegionForTheWorld ======
               Bragg : Emin=    0 eV  Emax=297.505 keV  deltaVI
          BetheBloch : Emin=297.505 keV Emax=  100 TeV  deltaVI
      ===== Limit on energy threshold has been applied 

hBrems:  for pi+  XStype:1  SubType=3
      dE/dx and range tables from 100 eV  to 100 TeV in 240 bins
      Lambda tables from threshold to 100 TeV, 20 bins/decade, spline: 0
      ===== EM models for the G4Region  DefaultRegionForTheWorld ======
               hBrem : Emin=    0 eV  Emax=  100 TeV  ModifiedMephi
      ===== Limit on energy threshold has been applied 

hPairProd:  for pi+  XStype:1  SubType=4
      dE/dx and range tables from 100 eV  to 100 TeV in 240 bins
      Lambda tables from threshold to 100 TeV, 20 bins/decade, spline: 0
      Sampling table 20x1001; from 1.11656 GeV to 100 TeV 
      ===== EM models for the G4Region  DefaultRegionForTheWorld ======
           hPairProd : Emin=    0 eV  Emax=  100 TeV  ModifiedMephi

CoulombScat:  for pi+ XStype:1 SubType=1 BuildTable=1
      Lambda table from threshold  to 100 TeV, 20 bins/decade, spline: 0
      ThetaMin(p) < Theta(degree) < 180; pLimit(GeV^1)= 0.139531
      ===== EM models for the G4Region  DefaultRegionForTheWorld ======
  eCoulombScattering : Emin=    0 eV  Emax=  100 TeV

msc:  for pi-  SubType= 10
      ===== EM models for the G4Region  DefaultRegionForTheWorld ======
        WentzelVIUni : Emin=    0 eV  Emax=  100 TeV Nbins=240 100 eV  - 100 TeV
          StepLim=Minimal Rfact=0.2 Gfact=2.5 Sfact=0.6 DispFlag:1 Skin=3 Llim=1 mm

hIoni:  for pi-  XStype:1  SubType=2
      dE/dx and range tables from 100 eV  to 100 TeV in 240 bins
      Lambda tables from threshold to 100 TeV, 20 bins/decade, spline: 1
      StepFunction=(0.1, 0.05 mm), integ: 1, fluct: 1, linLossLim= 0.01
      ===== EM models for the G4Region  DefaultRegionForTheWorld ======
            ICRU73QO : Emin=    0 eV  Emax=297.505 keV  deltaVI
          BetheBloch : Emin=297.505 keV Emax=  100 TeV  deltaVI
      ===== Limit on energy threshold has been applied 

hBrems:  for pi-  XStype:1  SubType=3
      dE/dx and range tables from 100 eV  to 100 TeV in 240 bins
      Lambda tables from threshold to 100 TeV, 20 bins/decade, spline: 0
      ===== EM models for the G4Region  DefaultRegionForTheWorld ======
               hBrem : Emin=    0 eV  Emax=  100 TeV  ModifiedMephi
      ===== Limit on energy threshold has been applied 

hPairProd:  for pi-  XStype:1  SubType=4
      dE/dx and range tables from 100 eV  to 100 TeV in 240 bins
      Lambda tables from threshold to 100 TeV, 20 bins/decade, spline: 0
      Sampling table 20x1001; from 1.11656 GeV to 100 TeV 
      ===== EM models for the G4Region  DefaultRegionForTheWorld ======
           hPairProd : Emin=    0 eV  Emax=  100 TeV  ModifiedMephi

CoulombScat:  for pi- XStype:1 SubType=1 BuildTable=1
      Used Lambda table of pi+
      ThetaMin(p) < Theta(degree) < 180; pLimit(GeV^1)= 0.139531
      ===== EM models for the G4Region  DefaultRegionForTheWorld ======
  eCoulombScattering : Emin=    0 eV  Emax=  100 TeV

========= Table of registered couples ============================

Index : 0     used in the geometry : Yes
 Material : VACUUM
 Range cuts        :  gamma  1 mm     e-  1 um     e+  1 um  proton 100 nm 
 Energy thresholds :  gamma  10 eV     e-  10 eV     e+  10 eV  proton 10 eV 
 Region(s) which use this couple : 
    DefaultRegionForTheWorld

Index : 1     used in the geometry : Yes
 Material : G4_SILICON_DIOXIDE
 Range cuts        :  gamma  1 mm     e-  1 um     e+  1 um  proton 100 nm 
 Energy thresholds :  gamma  5.67857 keV    e-  892.334 eV     e+  879.754 eV  proton 10 eV 
 Region(s) which use this couple : 
    BEOL

Index : 2     used in the geometry : Yes
 Material : G4_Si
 Range cuts        :  gamma  1 mm     e-  1 um     e+  1 um  proton 100 nm 
 Energy thresholds :  gamma  6.93779 keV    e-  855.846 eV     e+  843.409 eV  proton 10 eV 
 Region(s) which use this couple : 
    Bulk
    Sensitive

==================================================================

### Run 0 starts.
G4WT0 > ### Run 0 starts on worker thread 0.
G4WT0 > ### Run 0 start.
G4WT0 > --> Event 1000 starts with initial seeds (32766986,29233990).
G4WT0 > --> Event 2000 starts with initial seeds (49764252,54850316).
G4WT0 > --> Event 3000 starts with initial seeds (74171463,44032866).
G4WT0 > --> Event 4000 starts with initial seeds (66846944,33828183).
G4WT0 > --> Event 11000 starts with initial seeds (52982482,35497013).
G4WT0 > --> Event 12000 starts with initial seeds (28159963,21736124).
G4WT0 > --> Event 21000 starts with initial seeds (64997787,78326967).
G4WT0 > --> Event 22000 starts with initial seeds (65123969,63355841).
G4WT0 > --> Event 29000 starts with initial seeds (32282368,72745506).
G4WT0 > --> Event 30000 starts with initial seeds (20276562,23737985).
G4WT0 > --> Event 36000 starts with initial seeds (57251541,10364126).
G4WT0 > --> Event 37000 starts with initial seeds (40658054,62691959).
G4WT0 > --> Event 46000 starts with initial seeds (86649297,65013625).
G4WT0 > --> Event 47000 starts with initial seeds (66334631,90556772).
G4WT0 > --> Event 54000 starts with initial seeds (95828309,90820777).
G4WT0 > --> Event 55000 starts with initial seeds (88985383,20486228).
G4WT0 > --> Event 65000 starts with initial seeds (15464483,67305090).
G4WT0 > --> Event 66000 starts with initial seeds (3458435,5549803).
G4WT0 > --> Event 73000 starts with initial seeds (9428356,18138459).
G4WT0 > --> Event 74000 starts with initial seeds (33383180,22233723).
G4WT0 > --> Event 82000 starts with initial seeds (19722548,90301458).
G4WT0 > --> Event 85000 starts with initial seeds (1611582,72232730).
G4WT0 > --> Event 86000 starts with initial seeds (30137920,18154069).
G4WT0 > --> Event 93000 starts with initial seeds (84645751,87176195).
G4WT0 > --> Event 94000 starts with initial seeds (74769012,11893691).
G4WT0 > --> Event 102000 starts with initial seeds (4804262,75952568).
G4WT0 > --> Event 103000 starts with initial seeds (55142521,27817610).
G4WT0 > --> Event 106000 starts with initial seeds (21991299,11317883).
G4WT0 > --> Event 107000 starts with initial seeds (87515572,25737593).
G4WT0 > --> Event 114000 starts with initial seeds (37352795,42690708).
G4WT0 > --> Event 115000 starts with initial seeds (95364340,3418147).
G4WT0 > --> Event 120000 starts with initial seeds (35492806,54555468).
G4WT0 > --> Event 121000 starts with initial seeds (66371386,58608810).
G4WT0 > --> Event 138000 starts with initial seeds (94634847,79428355).
G4WT0 > --> Event 145000 starts with initial seeds (31418664,57450590).
G4WT0 > --> Event 146000 starts with initial seeds (20049377,84529633).
G4WT0 > --> Event 148000 starts with initial seeds (10205605,22610702).
G4WT0 > --> Event 155000 starts with initial seeds (9144945,7764240).
G4WT0 > --> Event 156000 starts with initial seeds (13542072,88335875).
G4WT0 > --> Event 162000 starts with initial seeds (96121747,25587293).
G4WT0 > --> Event 164000 starts with initial seeds (82905520,24141718).
G4WT0 > --> Event 165000 starts with initial seeds (24770430,10330827).
G4WT0 > --> Event 172000 starts with initial seeds (59301986,21628069).
G4WT0 > --> Event 173000 starts with initial seeds (34127656,23921681).
G4WT0 > --> Event 176000 starts with initial seeds (89500395,89631961).
G4WT0 > --> Event 177000 starts with initial seeds (65592217,10535577).
G4WT0 > --> Event 184000 starts with initial seeds (5907431,1765773).
G4WT0 > --> Event 185000 starts with initial seeds (95678170,65843360).
G4WT0 > --> Event 193000 starts with initial seeds (16596142,95071584).
G4WT0 > --> Event 194000 starts with initial seeds (30473113,83030183).
G4WT0 > Number of events = 50175
