           Ekin         Counts
      underflow              0
       overflow              0
      0.000e+00              0
      5.000e-02              0
      1.000e-01              0
      1.500e-01              0
      2.000e-01      1.060e-03
      2.500e-01      1.054e-03
      3.000e-01      1.053e-03
      3.500e-01      2.126e-03
      4.000e-01              0
      4.500e-01              0
      5.000e-01              0
      5.500e-01              0
      6.000e-01      1.073e-03
      6.500e-01      1.065e-03
      7.000e-01      3.169e-03
      7.500e-01      1.059e-03
      8.000e-01      2.118e-03
      8.500e-01              0
      9.000e-01      1.059e-03
      9.500e-01              0
      1.000e+00      1.055e-03
      1.050e+00      1.062e-03
      1.100e+00      1.061e-03
      1.150e+00              0
      1.200e+00              0
      1.250e+00      1.054e-03
      1.300e+00      1.056e-03
      1.350e+00      2.111e-03
      1.400e+00      3.194e-03
      1.450e+00      1.055e-03
      1.500e+00      3.198e-03
      1.550e+00      2.126e-03
      1.600e+00      1.055e-03
      1.650e+00      1.053e-03
      1.700e+00      1.051e-03
      1.750e+00              0
      1.800e+00      1.022e-03
      1.850e+00              0
      1.900e+00              0
      1.950e+00              0
      2.000e+00              0
      2.050e+00              0
      2.100e+00              0
      2.150e+00              0
      2.200e+00              0
      2.250e+00              0
      2.300e+00      1.067e-03
      2.350e+00              0
      2.400e+00              0
      2.450e+00      1.056e-03
      2.500e+00              0
      2.550e+00      1.078e-03
      2.600e+00              0
      2.650e+00      1.068e-03
      2.700e+00      2.135e-03
      2.750e+00              0
      2.800e+00      1.058e-03
      2.850e+00              0
      2.900e+00      1.056e-03
      2.950e+00      3.195e-03
      3.000e+00      3.179e-03
      3.050e+00              0
      3.100e+00      2.130e-03
      3.150e+00              0
      3.200e+00              0
      3.250e+00      2.111e-03
      3.300e+00      1.055e-03
      3.350e+00      1.051e-03
      3.400e+00              0
      3.450e+00              0
      3.500e+00              0
      3.550e+00              0
      3.600e+00              0
      3.650e+00              0
      3.700e+00              0
      3.750e+00      1.075e-03
      3.800e+00              0
      3.850e+00              0
      3.900e+00              0
      3.950e+00              0
      4.000e+00              0
      4.050e+00              0
      4.100e+00              0
      4.150e+00              0
      4.200e+00              0
      4.250e+00              0
      4.300e+00              0
      4.350e+00              0
      4.400e+00              0
      4.450e+00              0
      4.500e+00              0
      4.550e+00              0
      4.600e+00              0
      4.650e+00              0
      4.700e+00              0
      4.750e+00              0
      4.800e+00              0
      4.850e+00              0
      4.900e+00              0
      4.950e+00              0
      5.000e+00              0
      5.050e+00              0
      5.100e+00      1.074e-03
      5.150e+00      1.067e-03
      5.200e+00      2.131e-03
      5.250e+00      4.286e-03
      5.300e+00      1.074e-03
      5.350e+00      4.255e-03
      5.400e+00      1.074e-03
      5.450e+00      3.177e-03
      5.500e+00      4.266e-03
      5.550e+00      3.179e-03
      5.600e+00      1.057e-03
      5.650e+00      2.128e-03
      5.700e+00      3.166e-03
      5.750e+00      1.073e-03
      5.800e+00      4.244e-03
      5.850e+00      3.179e-03
      5.900e+00      2.120e-03
      5.950e+00      7.454e-03
      6.000e+00      5.279e-03
      6.050e+00      5.285e-03
      6.100e+00      2.118e-03
      6.150e+00      5.277e-03
      6.200e+00              0
      6.250e+00      2.111e-03
      6.300e+00              0
      6.350e+00              0
      6.400e+00              0
      6.450e+00              0
      6.500e+00              0
      6.550e+00              0
      6.600e+00      1.067e-03
      6.650e+00              0
      6.700e+00              0
      6.750e+00              0
      6.800e+00              0
      6.850e+00              0
      6.900e+00              0
      6.950e+00              0
      7.000e+00              0
      7.050e+00              0
      7.100e+00              0
      7.150e+00              0
      7.200e+00              0
      7.250e+00              0
      7.300e+00              0
      7.350e+00              0
      7.400e+00              0
      7.450e+00              0
      7.500e+00              0
      7.550e+00              0
      7.600e+00      2.128e+00
      7.650e+00      1.815e+01
      7.700e+00      1.415e+02
      7.750e+00      7.606e+02
      7.800e+00      3.060e+03
      7.850e+00      8.140e+03
      7.900e+00      1.614e+04
      7.950e+00      2.206e+04
      8.000e+00      2.200e+04
      8.050e+00      1.579e+04
      8.100e+00      8.046e+03
      8.150e+00      2.880e+03
      8.200e+00      7.425e+02
      8.250e+00      1.455e+02
      8.300e+00      1.818e+01
      8.350e+00      3.209e+00
      8.400e+00              0
      8.450e+00              0
      8.500e+00              0
      8.550e+00              0
      8.600e+00              0
      8.650e+00              0
      8.700e+00              0
      8.750e+00              0
      8.800e+00              0
      8.850e+00              0
      8.900e+00              0
      8.950e+00              0
      9.000e+00              0
      9.050e+00              0
      9.100e+00              0
      9.150e+00              0
      9.200e+00              0
      9.250e+00              0
      9.300e+00              0
      9.350e+00              0
      9.400e+00              0
      9.450e+00              0
      9.500e+00              0
      9.550e+00              0
      9.600e+00              0
      9.650e+00              0
      9.700e+00              0
      9.750e+00              0
      9.800e+00              0
      9.850e+00              0
      9.900e+00              0
      9.950e+00              0
      1.000e+01